[gd_scene load_steps=6 format=2]

[ext_resource path="res://HUD.gd" type="Script" id=1]
[ext_resource path="res://Xolonium-Regular.ttf" type="DynamicFontData" id=2]

[sub_resource type="DynamicFont" id=1]
size = 64
font_data = ExtResource( 2 )

[sub_resource type="DynamicFont" id=2]
size = 64
font_data = ExtResource( 2 )

[sub_resource type="DynamicFont" id=3]
size = 48
font_data = ExtResource( 2 )

[node name="HUD" type="CanvasLayer"]
script = ExtResource( 1 )

[node name="ScoreLabel" type="Label" parent="."]
anchor_left = 0.5
anchor_right = 0.5
margin_left = -101.375
margin_top = 72.8727
margin_right = 98.625
margin_bottom = 172.873
custom_fonts/font = SubResource( 1 )
custom_colors/font_color = Color( 0, 0, 0, 1 )
text = "0"
align = 1
valign = 1

[node name="MessageLabel" type="Label" parent="."]
anchor_left = 0.5
anchor_top = 0.5
anchor_right = 0.5
anchor_bottom = 0.5
margin_left = -332.5
margin_top = -88.5
margin_right = 332.5
margin_bottom = 88.5
custom_fonts/font = SubResource( 2 )
custom_colors/font_color = Color( 0, 0, 0, 1 )
text = "Run From 
El Tombo"
align = 1
valign = 1

[node name="StartButton" type="Button" parent="."]
anchor_left = 0.5
anchor_top = 1.0
anchor_right = 0.5
anchor_bottom = 1.0
margin_left = -100.0
margin_top = -200.0
margin_right = 100.0
margin_bottom = -100.0
custom_fonts/font = SubResource( 3 )
text = "Start"

[node name="MessageTimer" type="Timer" parent="."]
wait_time = 2.0
one_shot = true
[connection signal="pressed" from="StartButton" to="." method="_on_StartButton_pressed"]
[connection signal="timeout" from="MessageTimer" to="." method="_on_MessageTimer_timeout"]
